{
	"additionalNodes": [],
	"additionalParameters": {
		"root": {
			"height": 130,
			"width": 234
		}
	},
	"inputs": [ {
		"command": "Variable",
		"name": "mapa"
	}, {
		"command": "BETS_UNIT",
		"name": "transporterId"
	} ],
	"outputs": [],
	"properties": {
		"A1LYRCVwUrgrWTvyhg2eIN7jaZVSofI5": {
			"height": 112,
			"title": "nota_sim_firstproject.moveAlongPath",
			"width": 297,
			"x": 495,
			"y": 125
		},
		"AH4jy7khr3QufWnXJGcnKdAdjTF2wsGa": {
			"height": 92,
			"title": "nota_nep_shared.loadUnits",
			"width": 236,
			"x": 1001,
			"y": 243
		},
		"GEZFPqPawYI0y9BUwel3ZMMHD05ruC90": {
			"height": 94,
			"title": "store",
			"width": 506,
			"x": 495,
			"y": 27
		},
		"HE7jXJyhYksIKfp6zT99UxYTE1GA6AnY": {
			"height": 60,
			"title": "sequence",
			"width": 143,
			"x": 282,
			"y": 21
		},
		"O7KpJqQ79t04WCE0XAcuMnX6Hmxe6naz": {
			"height": 94,
			"title": "store",
			"width": 486,
			"x": 498,
			"y": 351
		},
		"ReYMXVl7mrFjQXpCp2RuQLwP87xyVgmL": {
			"height": 94,
			"title": "store",
			"width": 601,
			"x": 495,
			"y": -164
		},
		"cRKT1sOIIoe0HkMrBvBB2SelNnlk4oiP": {
			"height": 90,
			"title": "luaCondition",
			"width": 463,
			"x": 495,
			"y": 244
		},
		"rG4paohd1RLCythfhB6xUXijk2kDtc97": {
			"height": 112,
			"title": "nota_sim_firstproject.moveAlongPath",
			"width": 297,
			"x": 503,
			"y": 559
		},
		"sSwQOylujSiGaEcUcXqiIh6FwSLQ8ZYM": {
			"height": 94,
			"title": "store",
			"width": 502,
			"x": 498,
			"y": 456
		},
		"sm62Nkhe9hdJOk5UznU0nDbDmpyCi9Sm": {
			"height": 94,
			"title": "store",
			"width": 601,
			"x": 493,
			"y": -71
		},
		"zB446sVZSbccVjIqmwbVAoTbxn0JkGYg": {
			"height": 112,
			"title": "nota_nep_shared.unloadUnit",
			"width": 245,
			"x": 507,
			"y": 684
		}
	},
	"roles": [ {
		"categories": [ "Common.buildings", "Common.immobile" ],
		"name": "radar"
	}, {
		"categories": [ "nota_sim_firstproject.peeper" ],
		"name": "scouts"
	} ],
	"root": {
		"children": [ {
			"children": [],
			"id": "ReYMXVl7mrFjQXpCp2RuQLwP87xyVgmL",
			"nodeType": "luaCommand",
			"parameters": [ {
				"name": "var",
				"value": "unitsToChooseFrom"
			}, {
				"name": "value",
				"value": "nota_sim_firstproject.GetGroundAllyUnits(core.MissionInfo())"
			}, {
				"name": "scriptName",
				"value": "store"
			} ],
			"scriptName": "store"
		}, {
			"children": [],
			"id": "sm62Nkhe9hdJOk5UznU0nDbDmpyCi9Sm",
			"nodeType": "luaCommand",
			"parameters": [ {
				"name": "var",
				"value": "x"
			}, {
				"name": "value",
				"value": "unitsToChooseFrom[math.random(1,#unitsToChooseFrom)]"
			}, {
				"name": "scriptName",
				"value": "store"
			} ],
			"scriptName": "store"
		}, {
			"children": [],
			"id": "GEZFPqPawYI0y9BUwel3ZMMHD05ruC90",
			"nodeType": "luaCommand",
			"parameters": [ {
				"name": "var",
				"value": "pathTo"
			}, {
				"name": "value",
				"value": "nota_sim_firstproject.GetSafePath(mapa, transporterId, x.position)"
			}, {
				"name": "scriptName",
				"value": "store"
			} ],
			"scriptName": "store"
		}, {
			"children": [],
			"id": "A1LYRCVwUrgrWTvyhg2eIN7jaZVSofI5",
			"nodeType": "luaCommand",
			"parameters": [ {
				"name": "positions",
				"value": "pathTo"
			}, {
				"name": "selectedUnit",
				"value": "transporterId"
			}, {
				"name": "fight",
				"value": "false"
			}, {
				"name": "scriptName",
				"value": "nota_sim_firstproject.moveAlongPath"
			} ],
			"scriptName": "nota_sim_firstproject.moveAlongPath"
		}, {
			"children": [ {
				"children": [],
				"id": "AH4jy7khr3QufWnXJGcnKdAdjTF2wsGa",
				"nodeType": "luaCommand",
				"parameters": [ {
					"name": "units",
					"value": "{x.id}"
				}, {
					"name": "transporter",
					"value": "transporterId"
				}, {
					"name": "scriptName",
					"value": "nota_nep_shared.loadUnits"
				} ],
				"scriptName": "nota_nep_shared.loadUnits"
			} ],
			"id": "cRKT1sOIIoe0HkMrBvBB2SelNnlk4oiP",
			"nodeType": "luaCondition",
			"parameters": [ {
				"name": "expression",
				"value": "nota_sim_firstproject.GetUnitsXZDistance(x.id, transporterId)<500"
			}, {
				"name": "repeat",
				"value": "false"
			} ]
		}, {
			"children": [],
			"id": "O7KpJqQ79t04WCE0XAcuMnX6Hmxe6naz",
			"nodeType": "luaCommand",
			"parameters": [ {
				"name": "var",
				"value": "homePos"
			}, {
				"name": "value",
				"value": "nota_sim_firstproject.GetSafeArea(core.MissionInfo())"
			}, {
				"name": "scriptName",
				"value": "store"
			} ],
			"scriptName": "store"
		}, {
			"children": [],
			"id": "sSwQOylujSiGaEcUcXqiIh6FwSLQ8ZYM",
			"nodeType": "luaCommand",
			"parameters": [ {
				"name": "var",
				"value": "pathBack"
			}, {
				"name": "value",
				"value": "nota_sim_firstproject.GetSafePath(mapa,transporterId, homePos)"
			}, {
				"name": "scriptName",
				"value": "store"
			} ],
			"scriptName": "store"
		}, {
			"children": [],
			"id": "rG4paohd1RLCythfhB6xUXijk2kDtc97",
			"nodeType": "luaCommand",
			"parameters": [ {
				"name": "positions",
				"value": "pathBack"
			}, {
				"name": "selectedUnit",
				"value": "transporterId"
			}, {
				"name": "fight",
				"value": "false"
			}, {
				"name": "scriptName",
				"value": "nota_sim_firstproject.moveAlongPath"
			} ],
			"scriptName": "nota_sim_firstproject.moveAlongPath"
		}, {
			"children": [],
			"id": "zB446sVZSbccVjIqmwbVAoTbxn0JkGYg",
			"nodeType": "luaCommand",
			"parameters": [ {
				"name": "unit",
				"value": "x.id"
			}, {
				"name": "transporter",
				"value": "transporterId"
			}, {
				"name": "position",
				"value": "homePos"
			}, {
				"name": "scriptName",
				"value": "nota_nep_shared.unloadUnit"
			} ],
			"scriptName": "nota_nep_shared.unloadUnit"
		} ],
		"id": "HE7jXJyhYksIKfp6zT99UxYTE1GA6AnY",
		"nodeType": "sequence",
		"parameters": []
	}
}